<?xml version="1.0" encoding="UTF-8" standalone="no"?>
<svg width="64px" height="64px" viewBox="0 0 64 64" version="1.1" xmlns="http://www.w3.org/2000/svg" xmlns:xlink="http://www.w3.org/1999/xlink">
    <!-- Generator: Sketch 40 (33762) - http://www.bohemiancoding.com/sketch -->
    <title>Avatar CF</title>
    <desc>Created with Sketch.</desc>
    <defs></defs>
    <g id="Page-1" stroke="none" stroke-width="1" fill="none" fill-rule="evenodd">
        <g id="Finance---CALP" transform="translate(-3063.000000, -1591.000000)" fill="#869FB1">
            <path d="M3095,1655 C3112.67222,1655 3127,1640.67222 3127,1623 C3127,1605.32778 3112.67222,1591 3095,1591 C3077.32778,1591 3063,1605.32778 3063,1623 C3063,1640.67222 3077.32778,1655 3095,1655 L3095,1655 Z M3083.33611,1618.53056 C3083.33611,1612.01667 3088.55556,1606.73056 3095,1606.72778 C3101.44444,1606.725 3106.66111,1612.01389 3106.66111,1618.53056 C3106.66111,1625.04722 3101.44167,1630.33333 3095,1630.33333 C3088.55833,1630.33333 3083.33611,1625.04722 3083.33611,1618.53056 L3083.33611,1618.53056 Z M3114.93889,1644.43889 C3109.70556,1649.29167 3102.7,1652.25556 3095,1652.25556 C3087.3,1652.25556 3080.29444,1649.28889 3075.06111,1644.43889 C3079.075,1637.00278 3086.85278,1632.49167 3094.99722,1632.49722 C3103.14444,1632.49167 3110.92222,1637.00278 3114.93611,1644.43889 L3114.93889,1644.43889 L3114.93889,1644.43889 Z" id="Avatar-CF"></path>
        </g>
    </g>
</svg>